
    {
            "month": {
                "usd": "$ 19.99",
                "eur": "19.99 €",
                "chf": "CHF 19.99"
            },
            "twelveMonths": {
                "usd": "$ 23.99",
                "eur": "23.99 €",
                "chf": "CHF 23.99"
                
            },
            "twentyFourMonths": {
                "usd": "$ 29.99",
                "eur": "29.99 €",
                "chf": "CHF 29.99"
                
            },
            "discount": {
                "month": "0%" ,
                "twelveMonths": "20%",
                "twentyFourMonths": "33%"
            }
            
        }
  