[
    {
        "name": "Proton Free",
        "price": {
            "month": {
                "usd": "$ 0",
                "eur": "0 €",
                "chf": "CHF 0"
            },
            "twelveMonths": {
                "usd": "$ 0",
                "eur": "0 €",
                "chf": "CHF 0"
            },
            "twentyFourMonths": {
                "usd": "$ 0",
                "eur": "0 €",
                "chf": "CHF 0"
            }
            
        }
    },
    {
        "name": "Mail Plus",
        "price": {
            "month": {
                "usd": "$ 4.99",
                "eur": "4.99 €",
                "chf": "CHF 4.99"
            },
            "twelveMonths": {
                "usd": "$ 3.99",
                "eur": "3.99 €",
                "chf": "CHF 3.99"
            },
            "twentyFourMonths": {
                "usd": "$ 3.49",
                "eur": "3.49 €",
                "chf": "CHF 3.49"
            }
        }
    },
    {
        "name": "Proton Unlimited",
        "price": {
            "month": {
                "usd": "$ 12.99",
                "eur": "12.99 €",
                "chf": "CHF 12.99"
            },
            "twelveMonths": {
                "usd": "$ 9.99",
                "eur": "9.99 €",
                "chf": "CHF 9.99"
            },
            "twentyFourMonths": {
                "usd": "$ 7.99",
                "eur": "7.99 €",
                "chf": "CHF 7.99"
            }
        }         
    },
    {
        "name": "Proton Family",
        "price": {
            "month": {
                "usd": "$ 29.99",
                "eur": "29.99 €",
                "chf": "CHF 29.99"
            },
            "twelveMonths": {
                "usd": "$ 23.99",
                "eur": "23.99 €",
                "chf": "CHF 23.99"
            },
            "twentyFourMonths": {
                "usd": "$ 19.99",
                "eur": "19.99 €",
                "chf": "CHF 19.99"
            }
        }
    }    
  ]